// Jest Snapshot v1, https://goo.gl/fbAQLP

exports[`CreateFeedbackForm renders correctly 1 level deep 1`] = `
<div
  className="createPostForm"
>
  <form
    onSubmit={[Function]}
  >
    <div
      className="formInputFields"
    >
      <div
        className="form-group"
      >
        <label
          className="text-danger"
          htmlFor="content"
        >
          Reply Message
        </label>
        <textarea
          className="form-control is_invalid"
          id="content"
          onChange={[Function]}
          rows={6}
        >
          
        </textarea>
        <div
          className="input-validation form-control-feedback invalid-feedback"
          data-for="content"
          data-validation="input"
        >
          This is a sample validation feedback message
        </div>
      </div>
      <div
        className="form-group"
      >
        <label
          className="text-success"
          htmlFor="author"
        >
          User
        </label>
        <input
          className="form-control is_valid"
          id="author"
          onChange={[Function]}
          placeholder="Your name"
          type="text"
          value=""
        />
        <div
          className="input-validation form-control-feedback valid-feedback"
          data-for="content"
          data-validation="input"
        >
          This is a sample validation feedback message
        </div>
      </div>
    </div>
    <button
      className="btn btn-outline-primary createPostButton"
      disabled={false}
      type="submit"
    >
      Create Post
    </button>
  </form>
</div>
`;
